RSIMax = 77.34155419822399 and BarsToPriceMax = 0
RSIMax = 84.14118427366381 and BarsToPriceMax = 0
RSIMax = 89.38422465563782 and BarsToPriceMax = 1
RSIMax = 91.67062928772005 and BarsToPriceMax = 0
RSIMax = 75.48981244095647 and BarsToPriceMax = 2
RSIMax = 80.74998384753562 and BarsToPriceMax = 1
RSIMax = 78.94521410684598 and BarsToPriceMax = 18
RSIMax = 76.89854462938322 and BarsToPriceMax = 0
RSIMax = 84.0784381194753 and BarsToPriceMax = 34
RSIMax = 88.69495305204268 and BarsToPriceMax = 0
RSIMax = 82.98923888546273 and BarsToPriceMax = 1
RSIMax = 92.72799924976026 and BarsToPriceMax = 12
RSIMax = 76.63395930538934 and BarsToPriceMax = 13
RSIMax = 78.37728587648581 and BarsToPriceMax = 0
RSIMax = 75.2845684796451 and BarsToPriceMax = 17
RSIMax = 77.91997155766495 and BarsToPriceMax = 0
RSIMax = 82.51139376216204 and BarsToPriceMax = 0
RSIMax = 76.47386242062876 and BarsToPriceMax = 42
RSIMax = 86.37464090029123 and BarsToPriceMax = 16
RSIMax = 77.92841475896608 and BarsToPriceMax = 1
RSIMax = 82.90930704043127 and BarsToPriceMax = 1
